Centre for Applied Bioinformatics R Workshop - SQL databases and R
…
diagram illustrating inner and left joins

For example, to extract all surveys for the first plot, which has plot_id 1, we can do:

plots %>%
  filter(plot_id == 1) %>%
  inner_join(surveys) %>%
  collect()

#> Joining, by = "plot_id"

#> # A tibble: 1,995 × 10
#>    plot_id plot_type         record_id month   day  year species_id sex  
#>      <int> <chr>                 <int> <int> <int> <int> <chr>      <chr>
#>  1       1 Spectab exclosure         6     7    16  1977 PF         M    
#>  2       1 Spectab exclosure         8     7    16  1977 DM         M    
#>  3       1 Spectab exclosure         9     7    16  1977 DM         F    
#>  4       1 Spectab exclosure        78     8    19  1977 PF         M    
#>  5       1 Spectab exclosure        80     8    19  1977 DS         M    
#>  6       1 Spectab exclosure       218     9    13  1977 PF         M    
#>  7       1 Spectab exclosure       222     9    13  1977 DS         M    
#>  8       1 Spectab exclosure       239     9    13  1977 DS         M    
#>  9       1 Spectab exclosure       263    10    16  1977 DM         M    
#> 10       1 Spectab exclosure       270    10    16  1977 DM         F    
#> # … with 1,985 more rows, and 2 more variables: hindfoot_length <int>,
#> #   weight <int>
…
